# Fdb version 3
["pdflatex"] 1522824653 "prednaska.tex" "prednaska.pdf" "prednaska" 1522824655
  "/dev/null" 1522821575 0 d41d8cd98f00b204e9800998ecf8427e ""
  "/etc/texmf/web2c/texmf.cnf" 1519166399 475 c0e671620eb5563b2130f56340a5fde8 ""
  "/usr/share/texlive/texmf-dist/fonts/map/fontname/texfonts.map" 1480098670 3287 e6b82fe08f5336d4d5ebc73fb1152e87 ""
  "/usr/share/texlive/texmf-dist/fonts/tfm/jknappen/ec/ecbx1095.tfm" 1480098696 3584 21b378cca2e40816b0e6d74a4dc98f04 ""
  "/usr/share/texlive/texmf-dist/fonts/tfm/jknappen/ec/ecbx1200.tfm" 1480098696 3584 402da0b29eafbad07963b1224b222f18 ""
  "/usr/share/texlive/texmf-dist/fonts/tfm/jknappen/ec/ecbx1440.tfm" 1480098696 3584 13049b61b922a28b158a38aeff75ee9b ""
  "/usr/share/texlive/texmf-dist/fonts/tfm/jknappen/ec/ecrm0600.tfm" 1480098696 3584 291a5713401683441e0a8c8f4417b17b ""
  "/usr/share/texlive/texmf-dist/fonts/tfm/jknappen/ec/ecrm0800.tfm" 1480098696 3584 49064b465390a8e316a3c8417a050403 ""
  "/usr/share/texlive/texmf-dist/fonts/tfm/jknappen/ec/ecrm1095.tfm" 1480098696 3584 929cdff2b7a8c11bd4d49fd68cb0ae70 ""
  "/usr/share/texlive/texmf-dist/fonts/tfm/jknappen/ec/ecrm1200.tfm" 1480098696 3584 f80ddd985bd00e29e9a6047ebd9d4781 ""
  "/usr/share/texlive/texmf-dist/fonts/tfm/jknappen/ec/ecrm1440.tfm" 1480098696 3584 3169d30142b88a27d4ab0e3468e963a2 ""
  "/usr/share/texlive/texmf-dist/fonts/tfm/jknappen/ec/tcrm1095.tfm" 1480098696 1536 02c06700a42be0f5a28664c7273f82e7 ""
  "/usr/share/texlive/texmf-dist/fonts/tfm/public/amsfonts/cmextra/cmex7.tfm" 1480098698 1004 54797486969f23fa377b128694d548df ""
  "/usr/share/texlive/texmf-dist/fonts/tfm/public/amsfonts/cmextra/cmex8.tfm" 1480098698 988 bdf658c3bfc2d96d3c8b02cfc1c94c20 ""
  "/usr/share/texlive/texmf-dist/fonts/tfm/public/amsfonts/symbols/msam10.tfm" 1480098698 916 f87d7c45f9c908e672703b83b72241a3 ""
  "/usr/share/texlive/texmf-dist/fonts/tfm/public/amsfonts/symbols/msam7.tfm" 1480098698 928 2dc8d444221b7a635bb58038579b861a ""
  "/usr/share/texlive/texmf-dist/fonts/tfm/public/amsfonts/symbols/msbm10.tfm" 1480098698 908 2921f8a10601f252058503cc6570e581 ""
  "/usr/share/texlive/texmf-dist/fonts/tfm/public/amsfonts/symbols/msbm7.tfm" 1480098698 940 228d6584342e91276bf566bcf9716b83 ""
  "/usr/share/texlive/texmf-dist/fonts/tfm/public/cm/cmex10.tfm" 1480098701 992 662f679a0b3d2d53c1b94050fdaa3f50 ""
  "/usr/share/texlive/texmf-dist/fonts/tfm/public/cm/cmmi10.tfm" 1480098701 1528 abec98dbc43e172678c11b3b9031252a ""
  "/usr/share/texlive/texmf-dist/fonts/tfm/public/cm/cmmi6.tfm" 1480098701 1512 f21f83efb36853c0b70002322c1ab3ad ""
  "/usr/share/texlive/texmf-dist/fonts/tfm/public/cm/cmmi8.tfm" 1480098701 1520 eccf95517727cb11801f4f1aee3a21b4 ""
  "/usr/share/texlive/texmf-dist/fonts/tfm/public/cm/cmr10.tfm" 1480098701 1296 45809c5a464d5f32c8f98ba97c1bb47f ""
  "/usr/share/texlive/texmf-dist/fonts/tfm/public/cm/cmr6.tfm" 1480098701 1300 b62933e007d01cfd073f79b963c01526 ""
  "/usr/share/texlive/texmf-dist/fonts/tfm/public/cm/cmr8.tfm" 1480098701 1292 21c1c5bfeaebccffdb478fd231a0997d ""
  "/usr/share/texlive/texmf-dist/fonts/tfm/public/cm/cmsy10.tfm" 1480098701 1124 6c73e740cf17375f03eec0ee63599741 ""
  "/usr/share/texlive/texmf-dist/fonts/tfm/public/cm/cmsy6.tfm" 1480098701 1116 933a60c408fc0a863a92debe84b2d294 ""
  "/usr/share/texlive/texmf-dist/fonts/tfm/public/cm/cmsy8.tfm" 1480098701 1120 8b7d695260f3cff42e636090a8002094 ""
  "/usr/share/texlive/texmf-dist/fonts/tfm/public/latex-fonts/lasy6.tfm" 1480098711 520 4889cce2180234b97cad636b6039c722 ""
  "/usr/share/texlive/texmf-dist/tex/context/base/mkii/supp-pdf.mkii" 1480098806 71627 94eb9990bed73c364d7f53f960cc8c5b ""
  "/usr/share/texlive/texmf-dist/tex/generic/ifxetex/ifxetex.sty" 1480098815 1458 43ab4710dc82f3edeabecd0d099626b2 ""
  "/usr/share/texlive/texmf-dist/tex/generic/oberdiek/catchfile.sty" 1480098815 8493 e586100f117d095256a1a5c630c3fa25 ""
  "/usr/share/texlive/texmf-dist/tex/generic/oberdiek/etexcmds.sty" 1480098815 7612 729a8cc22a1ee0029997c7f74717ae05 ""
  "/usr/share/texlive/texmf-dist/tex/generic/oberdiek/gettitlestring.sty" 1480098815 8237 3b62ef1f7e2c23a328c814b3893bc11f ""
  "/usr/share/texlive/texmf-dist/tex/generic/oberdiek/hobsub-generic.sty" 1490564930 185082 1fb09d7d24834377f95006300bc91fd2 ""
  "/usr/share/texlive/texmf-dist/tex/generic/oberdiek/hobsub-hyperref.sty" 1480098815 70864 bcd5b216757bd619ae692a151d90085d ""
  "/usr/share/texlive/texmf-dist/tex/generic/oberdiek/ifluatex.sty" 1480098815 7324 2310d1247db0114eb4726807c8837a0e ""
  "/usr/share/texlive/texmf-dist/tex/generic/oberdiek/ifpdf.sty" 1490564930 1251 d170e11a3246c3392bc7f59595af42cb ""
  "/usr/share/texlive/texmf-dist/tex/generic/oberdiek/infwarerr.sty" 1480098815 8253 473e0e41f9adadb1977e8631b8f72ea6 ""
  "/usr/share/texlive/texmf-dist/tex/generic/oberdiek/kvsetkeys.sty" 1480098815 14040 ac8866aac45982ac84021584b0abb252 ""
  "/usr/share/texlive/texmf-dist/tex/generic/oberdiek/ltxcmds.sty" 1480098815 18425 5b3c0c59d76fac78978b5558e83c1f36 ""
  "/usr/share/texlive/texmf-dist/tex/generic/oberdiek/pdftexcmds.sty" 1490564930 20151 72b3c7cacb61f7dd527505c39a23f7c1 ""
  "/usr/share/texlive/texmf-dist/tex/generic/ulem/ulem.sty" 1480098819 23756 854c01b779030ff5b2aad88ba7a119f2 ""
  "/usr/share/texlive/texmf-dist/tex/generic/xstring/xstring.sty" 1480098819 144 0ca8d67b000b795a4d9ec000e0fd09c7 ""
  "/usr/share/texlive/texmf-dist/tex/generic/xstring/xstring.tex" 1480098819 54373 fd4487ae3e45d4074bc89aea1d2b6807 ""
  "/usr/share/texlive/texmf-dist/tex/latex/amsfonts/amsfonts.sty" 1480098820 5949 3f3fd50a8cc94c3d4cbf4fc66cd3df1c ""
  "/usr/share/texlive/texmf-dist/tex/latex/amsfonts/amssymb.sty" 1480098820 13829 94730e64147574077f8ecfea9bb69af4 ""
  "/usr/share/texlive/texmf-dist/tex/latex/amsfonts/umsa.fd" 1480098820 961 6518c6525a34feb5e8250ffa91731cff ""
  "/usr/share/texlive/texmf-dist/tex/latex/amsfonts/umsb.fd" 1480098820 961 d02606146ba5601b5645f987c92e6193 ""
  "/usr/share/texlive/texmf-dist/tex/latex/amsmath/amsbsy.sty" 1480098820 2210 5c54ab129b848a5071554186d0168766 ""
  "/usr/share/texlive/texmf-dist/tex/latex/amsmath/amsgen.sty" 1480098820 4160 c115536cf8d4ff25aa8c1c9bc4ecb79a ""
  "/usr/share/texlive/texmf-dist/tex/latex/amsmath/amsmath.sty" 1485129665 84329 81aa65c5042562f79cb421feff9b8bdc ""
  "/usr/share/texlive/texmf-dist/tex/latex/amsmath/amsopn.sty" 1480098820 4115 318a66090112f3aa3f415aeb6fe8540f ""
  "/usr/share/texlive/texmf-dist/tex/latex/amsmath/amstext.sty" 1480098820 2431 fe3078ec12fc30287f568596f8e0b948 ""
  "/usr/share/texlive/texmf-dist/tex/latex/base/article.cls" 1480098821 19821 310da678527a7dfe2a02c88af38079b7 ""
  "/usr/share/texlive/texmf-dist/tex/latex/base/fontenc.sty" 1492297155 4571 13977df0eda144b93597fc709035ad1f ""
  "/usr/share/texlive/texmf-dist/tex/latex/base/ifthen.sty" 1480098821 5159 a08c9bbd48fc492f15b22e458bef961f ""
  "/usr/share/texlive/texmf-dist/tex/latex/base/inputenc.sty" 1480098821 4732 d63eda807ac82cca2ca8488efd31a966 ""
  "/usr/share/texlive/texmf-dist/tex/latex/base/omsenc.dfu" 1487721667 2004 ac51aeac484f08c01026120d62677eca ""
  "/usr/share/texlive/texmf-dist/tex/latex/base/ot1enc.dfu" 1487721667 3181 1cb3e9ad01f4a01127b2ffd821bfeec7 ""
  "/usr/share/texlive/texmf-dist/tex/latex/base/size11.clo" 1480098821 8308 f91506bb4df6d8527331f7bbeaf0e63c ""
  "/usr/share/texlive/texmf-dist/tex/latex/base/t1enc.def" 1492297155 10006 a90ba4035cf778f32f424e297d92e235 ""
  "/usr/share/texlive/texmf-dist/tex/latex/base/t1enc.dfu" 1487721667 11255 9d97362866549d3d3c994b5f28d1b9b5 ""
  "/usr/share/texlive/texmf-dist/tex/latex/base/textcomp.sty" 1492297155 16154 f2c73e20ca771d534a8516c62c6b0eae ""
  "/usr/share/texlive/texmf-dist/tex/latex/base/ts1cmr.fd" 1480098821 2217 d274654bda1292013bdf48d5f720a495 ""
  "/usr/share/texlive/texmf-dist/tex/latex/base/ts1enc.def" 1480098821 7767 aa88823823f5e767d79ea1166ab1ae74 ""
  "/usr/share/texlive/texmf-dist/tex/latex/base/ts1enc.dfu" 1487721667 4919 76510afd60e8282294f944c2f9f5103b ""
  "/usr/share/texlive/texmf-dist/tex/latex/base/utf8.def" 1487721667 7784 325a2a09984cb5c4ff230f9867145ad3 ""
  "/usr/share/texlive/texmf-dist/tex/latex/capt-of/capt-of.sty" 1480098823 1311 063f8536a047a2d9cb1803321f793f37 ""
  "/usr/share/texlive/texmf-dist/tex/latex/etoolbox/etoolbox.sty" 1483484472 42324 d951db30d0cb2b811f084fa3f92aec16 ""
  "/usr/share/texlive/texmf-dist/tex/latex/fancyvrb/fancyvrb.sty" 1480098827 45360 a0833d32f1b541964596b02870342d5a ""
  "/usr/share/texlive/texmf-dist/tex/latex/float/float.sty" 1480098828 6749 16d2656a1984957e674b149555f1ea1d ""
  "/usr/share/texlive/texmf-dist/tex/latex/framed/framed.sty" 1480098829 22449 7ec15c16d0d66790f28e90343c5434a3 ""
  "/usr/share/texlive/texmf-dist/tex/latex/fvextra/fvextra.sty" 1499987360 50568 c2b40450dceec7d451285b9acd7d9214 ""
  "/usr/share/texlive/texmf-dist/tex/latex/graphics-cfg/color.cfg" 1480098830 1213 620bba36b25224fa9b7e1ccb4ecb76fd ""
  "/usr/share/texlive/texmf-dist/tex/latex/graphics-cfg/graphics.cfg" 1480098830 1224 978390e9c2234eab29404bc21b268d1e ""
  "/usr/share/texlive/texmf-dist/tex/latex/graphics-def/pdftex.def" 1498427493 16511 5d26b5e9dfb345f4c794a3d58bda444e ""
  "/usr/share/texlive/texmf-dist/tex/latex/graphics/graphics.sty" 1498427532 15275 7d676729b1bedd3e7f3c6717affb366c ""
  "/usr/share/texlive/texmf-dist/tex/latex/graphics/graphicx.sty" 1498427532 9066 649f2ccf62888e3d8c3e57256b70b8e1 ""
  "/usr/share/texlive/texmf-dist/tex/latex/graphics/keyval.sty" 1480098830 2594 d18d5e19aa8239cf867fa670c556d2e9 ""
  "/usr/share/texlive/texmf-dist/tex/latex/graphics/rotating.sty" 1485129666 6969 f1843f5f0545182bf419df38f75e3930 ""
  "/usr/share/texlive/texmf-dist/tex/latex/graphics/trig.sty" 1480098830 3980 0a268fbfda01e381fa95821ab13b6aee ""
  "/usr/share/texlive/texmf-dist/tex/latex/hyperref/hpdftex.def" 1489964469 51983 9a4f683a2a7b213874a28bc4008b84d9 ""
  "/usr/share/texlive/texmf-dist/tex/latex/hyperref/hyperref.sty" 1489964469 233808 b63d91422c362e723c6e8b1a2fffcba5 ""
  "/usr/share/texlive/texmf-dist/tex/latex/hyperref/nameref.sty" 1480098831 12949 81e4e808884a8f0e276b69410e234656 ""
  "/usr/share/texlive/texmf-dist/tex/latex/hyperref/pd1enc.def" 1489964469 14098 7631f11156e5f9cd76010dbd230aa268 ""
  "/usr/share/texlive/texmf-dist/tex/latex/ifplatform/ifplatform.sty" 1480098831 3847 7836cfc12cc39575e0ea1f4b4bc16b1a ""
  "/usr/share/texlive/texmf-dist/tex/latex/latexconfig/epstopdf-sys.cfg" 1480098833 678 4792914a8f45be57bb98413425e4c7af ""
  "/usr/share/texlive/texmf-dist/tex/latex/latexconfig/hyperref.cfg" 1480098833 235 6031e5765137be07eed51a510b2b8fb7 ""
  "/usr/share/texlive/texmf-dist/tex/latex/lineno/lineno.sty" 1480098833 151738 8cd767481920f0eb785302dacfc87057 ""
  "/usr/share/texlive/texmf-dist/tex/latex/minted/minted.sty" 1500585774 47165 6a3e43a8d03bd86910a1dbf68d6c3645 ""
  "/usr/share/texlive/texmf-dist/tex/latex/oberdiek/auxhook.sty" 1480098836 3834 4363110eb0ef1eb2b71c8fcbcdb6c357 ""
  "/usr/share/texlive/texmf-dist/tex/latex/oberdiek/epstopdf-base.sty" 1480098836 12095 5337833c991d80788a43d3ce26bd1c46 ""
  "/usr/share/texlive/texmf-dist/tex/latex/oberdiek/grfext.sty" 1480098836 7075 2fe3d848bba95f139de11ded085e74aa ""
  "/usr/share/texlive/texmf-dist/tex/latex/oberdiek/grffile.sty" 1480098836 13538 be77aa888ffba3c8d06db69357d0b1ed ""
  "/usr/share/texlive/texmf-dist/tex/latex/oberdiek/kvoptions.sty" 1480098836 22417 1d9df1eb66848aa31b18a593099cf45c ""
  "/usr/share/texlive/texmf-dist/tex/latex/oberdiek/rerunfilecheck.sty" 1480098836 9581 023642318cef9f4677efe364de1e2a27 ""
  "/usr/share/texlive/texmf-dist/tex/latex/tools/calc.sty" 1480098841 10214 d03d065f799d54f6b7e9b175f8d84279 ""
  "/usr/share/texlive/texmf-dist/tex/latex/tools/longtable.sty" 1480098841 12083 80916157594a8e4354985aaefae4f367 ""
  "/usr/share/texlive/texmf-dist/tex/latex/tools/shellesc.sty" 1480098841 3270 e11dab94d1e3fce5344c1b70f2af4abd ""
  "/usr/share/texlive/texmf-dist/tex/latex/upquote/upquote.sty" 1480098842 1048 517e01cde97c1c0baf72e69d43aa5a2e ""
  "/usr/share/texlive/texmf-dist/tex/latex/url/url.sty" 1480098842 12796 8edb7d69a20b857904dd0ea757c14ec9 ""
  "/usr/share/texlive/texmf-dist/tex/latex/wrapfig/wrapfig.sty" 1480098843 26220 3701aebf80ccdef248c0c20dd062fea9 ""
  "/usr/share/texlive/texmf-dist/tex/latex/xcolor/xcolor.sty" 1480098843 55589 34128738f682d033422ca125f82e5d62 ""
  "/usr/share/texlive/texmf-dist/web2c/texmf.cnf" 1503024366 32036 8f10cb8f6ef259fb5791f09c065d3d13 ""
  "/usr/share/texmf/web2c/texmf.cnf" 1503024366 32036 8f10cb8f6ef259fb5791f09c065d3d13 ""
  "/var/lib/texmf/fonts/map/pdftex/updmap/pdftex.map" 1519167088 2377213 8bc19c9e6d8db8e1c35694d1be199981 ""
  "/var/lib/texmf/web2c/pdftex/pdflatex.fmt" 1519167120 4125145 c619668d6644a52e9114c87156d9495c ""
  "prednaska 1/screenshot_2018-02-14_12-24-02.png" 1518600242 393601 e73ca38acb689b0cfaa9c2edd7b1ac64 ""
  "prednaska 1/screenshot_2018-02-14_12-24-44.png" 1518600284 1575538 554d35db06f6c43e2f3648fd2e4604d8 ""
  "prednaska 1/screenshot_2018-02-14_12-25-44.png" 1518600344 318196 ce7143cabf721541ee66f4f627a278ac ""
  "prednaska 2/screenshot_2018-03-01_12-46-11.png" 1519904771 426964 f362896927cd9d77c56448afd22057fa ""
  "prednaska 2/screenshot_2018-03-01_12-46-47.png" 1519904807 203147 7b1217b8d5821721e30725dcee628af7 ""
  "prednaska 2/screenshot_2018-03-01_12-47-07.png" 1519904827 201675 49ebfe30bb0301ac3a9809ccd4cbbabc ""
  "prednaska 2/screenshot_2018-03-01_12-47-33.png" 1519904853 96043 850dece0a8c8bf6a7055f5de27b41ce7 ""
  "prednaska 3/screenshot_2018-03-01_12-48-10.png" 1519904890 225436 14ca7fed4f043dfbbbd2b8c5eae45256 ""
  "prednaska 3/screenshot_2018-03-01_12-48-43.png" 1519904923 676381 66a3d1d898270b4c144fc664b78110d7 ""
  "prednaska 3/screenshot_2018-03-01_12-49-09.png" 1519904949 302193 77857dd96d7ea129f4f3c1ff1e27b9e6 ""
  "prednaska 3/screenshot_2018-03-01_12-49-39.png" 1519904979 67146 50b3b624b25f7ad1a89f9334295b7915 ""
  "prednaska 3/screenshot_2018-03-01_12-50-03.png" 1519905003 263741 64b3c062f5fe90fa29bcd1830145903f ""
  "prednaska.aex" 0 -1 0 ""
  "prednaska.aux" 1522824655 16494 b4323f6f96566a203d781c8085910282 ""
  "prednaska.out" 1522824655 5342 756cecb5dd3fae2bf1a5422d49ab31e7 ""
  "prednaska.tex" 1522824650 56274 170b5f5d3fcdd2f8e05bb1acfbdce811 ""
  "prednaska.toc" 1522824654 0 d41d8cd98f00b204e9800998ecf8427e ""
  "prednaska.w18" 0 -1 0 ""
  (generated)
  "prednaska.pdf"
  "prednaska.toc"
  "prednaska.log"
  "prednaska.out"
  "prednaska.aux"
