\BOOKMARK [1][-]{section.1}{prednaska 1}{}% 1
\BOOKMARK [2][-]{subsection.1.1}{Zakladne pojmy teorie pravdepodobnosti}{section.1}% 2
\BOOKMARK [3][-]{subsubsection.1.1.1}{pojmy}{subsection.1.1}% 3
\BOOKMARK [3][-]{subsubsection.1.1.2}{klasicka definicia pravdepodobnosti}{subsection.1.1}% 4
\BOOKMARK [3][-]{subsubsection.1.1.3}{statisticka definicia pravdepodobnosti}{subsection.1.1}% 5
\BOOKMARK [3][-]{subsubsection.1.1.4}{Axiomaticka def. pravdepodobnosti pre nespocitalne mziny}{subsection.1.1}% 6
\BOOKMARK [3][-]{subsubsection.1.1.5}{Kolmogorova axiomaticka definicia pravdepodobnosti}{subsection.1.1}% 7
\BOOKMARK [3][-]{subsubsection.1.1.6}{nahodna premenna}{subsection.1.1}% 8
\BOOKMARK [1][-]{section.2}{prednaska 2}{}% 9
\BOOKMARK [2][-]{subsection.2.1}{Spojite rozdelenia pravdepodobnosti}{section.2}% 10
\BOOKMARK [3][-]{subsubsection.2.1.1}{vlastnosti funkcii pravdepodobnosti}{subsection.2.1}% 11
\BOOKMARK [3][-]{subsubsection.2.1.2}{Spojite rozdelenie}{subsection.2.1}% 12
\BOOKMARK [3][-]{subsubsection.2.1.3}{Rovnomerne rozdelenie}{subsection.2.1}% 13
\BOOKMARK [3][-]{subsubsection.2.1.4}{Normalne rozdelenie}{subsection.2.1}% 14
\BOOKMARK [2][-]{subsection.2.2}{Jednorozmerny statisticky subor \(prvotna graficka a vypoctova analyza\)}{section.2}% 15
\BOOKMARK [3][-]{subsubsection.2.2.1}{Prvotna statisticka analyza, statisticke grafy}{subsection.2.2}% 16
\BOOKMARK [3][-]{subsubsection.2.2.2}{Charakteristiky polohy}{subsection.2.2}% 17
\BOOKMARK [1][-]{section.3}{prednaska 3}{}% 18
\BOOKMARK [2][-]{subsection.3.1}{Charakteristiky variability/rozptylu}{section.3}% 19
\BOOKMARK [2][-]{subsection.3.2}{Teoria odhadu}{section.3}% 20
\BOOKMARK [3][-]{subsubsection.3.2.1}{vlastnosti bodovych odhadov}{subsection.3.2}% 21
\BOOKMARK [3][-]{subsubsection.3.2.2}{Metody odhadu}{subsection.3.2}% 22
\BOOKMARK [3][-]{subsubsection.3.2.3}{Intervalove odhady}{subsection.3.2}% 23
\BOOKMARK [3][-]{subsubsection.3.2.4}{Intervaly spolahlivosti pre parametre normalneho rozdelenia \(IS, CI\)}{subsection.3.2}% 24
\BOOKMARK [1][-]{section.4}{prednaska 4 - testy hypotez}{}% 25
\BOOKMARK [2][-]{subsection.4.1}{testovanie statistikych hypotez}{section.4}% 26
\BOOKMARK [3][-]{subsubsection.4.1.1}{priklad testu}{subsection.4.1}% 27
\BOOKMARK [3][-]{subsubsection.4.1.2}{chyby}{subsection.4.1}% 28
\BOOKMARK [3][-]{subsubsection.4.1.3}{test hypotezy}{subsection.4.1}% 29
\BOOKMARK [3][-]{subsubsection.4.1.4}{rozdelenie podla kriterii}{subsection.4.1}% 30
\BOOKMARK [2][-]{subsection.4.2}{testy hypotez pre par. normalneho rozdelenia}{section.4}% 31
\BOOKMARK [3][-]{subsubsection.4.2.1}{test pre strednu hodnotu ak disperziu pozname}{subsection.4.2}% 32
\BOOKMARK [3][-]{subsubsection.4.2.2}{test pre strednu hodnotu ak disperzia nie je znama}{subsection.4.2}% 33
\BOOKMARK [3][-]{subsubsection.4.2.3}{test pre disperziu normalneho rozdelenia}{subsection.4.2}% 34
\BOOKMARK [3][-]{subsubsection.4.2.4}{parovy dvojvyberovy test}{subsection.4.2}% 35
\BOOKMARK [1][-]{section.5}{prednaska 5 - dvojvyberove testy}{}% 36
\BOOKMARK [2][-]{subsection.5.1}{parovy test}{section.5}% 37
\BOOKMARK [3][-]{subsubsection.5.1.1}{priklad}{subsection.5.1}% 38
\BOOKMARK [2][-]{subsection.5.2}{neparovy test}{section.5}% 39
\BOOKMARK [3][-]{subsubsection.5.2.1}{disperzie sa rovnaju}{subsection.5.2}% 40
\BOOKMARK [3][-]{subsubsection.5.2.2}{disperzie sa nerovnaju}{subsection.5.2}% 41
\BOOKMARK [3][-]{subsubsection.5.2.3}{test rovnosti disperzii}{subsection.5.2}% 42
\BOOKMARK [2][-]{subsection.5.3}{dvojrozmerny statisticky subor}{section.5}% 43
\BOOKMARK [3][-]{subsubsection.5.3.1}{priklad}{subsection.5.3}% 44
\BOOKMARK [3][-]{subsubsection.5.3.2}{dalsie veliciny}{subsection.5.3}% 45
\BOOKMARK [3][-]{subsubsection.5.3.3}{test nulovosti korelacneho koeficientu}{subsection.5.3}% 46
\BOOKMARK [1][-]{section.6}{prednaska 6 - linearna regresia, linearny model, regresna analyza}{}% 47
\BOOKMARK [2][-]{subsection.6.1}{regresna analyza}{section.6}% 48
\BOOKMARK [3][-]{subsubsection.6.1.1}{MSE pre priamku}{subsection.6.1}% 49
\BOOKMARK [2][-]{subsection.6.2}{charakteristiky regresnej analyzy}{section.6}% 50
\BOOKMARK [3][-]{subsubsection.6.2.1}{rezidualny sucet stvorcov}{subsection.6.2}% 51
\BOOKMARK [3][-]{subsubsection.6.2.2}{vyberova kovariancna matica}{subsection.6.2}% 52
\BOOKMARK [3][-]{subsubsection.6.2.3}{pasy spolahlivosti}{subsection.6.2}% 53
\BOOKMARK [2][-]{subsection.6.3}{overovanie vhodnosti regresneho modelu}{section.6}% 54
\BOOKMARK [2][-]{subsection.6.4}{transformacie na linearnu regresiu}{section.6}% 55
\BOOKMARK [3][-]{subsubsection.6.4.1}{exponencialne funkcie}{subsection.6.4}% 56
\BOOKMARK [3][-]{subsubsection.6.4.2}{y=axb}{subsection.6.4}% 57
\BOOKMARK [3][-]{subsubsection.6.4.3}{y=abx}{subsection.6.4}% 58
\BOOKMARK [3][-]{subsubsection.6.4.4}{y=a+bx}{subsection.6.4}% 59
\BOOKMARK [1][-]{section.7}{prednaska 7 - regresna analyza a logisticka regresia}{}% 60
\BOOKMARK [2][-]{subsection.7.1}{chyby modelu}{section.7}% 61
\BOOKMARK [2][-]{subsection.7.2}{regresia s 2 nezavislymi premennymi}{section.7}% 62
\BOOKMARK [3][-]{subsubsection.7.2.1}{priklad}{subsection.7.2}% 63
\BOOKMARK [2][-]{subsection.7.3}{zovseobecnene linearne modely}{section.7}% 64
\BOOKMARK [2][-]{subsection.7.4}{logisticka regresia}{section.7}% 65
\BOOKMARK [3][-]{subsubsection.7.4.1}{model, transformacia logit}{subsection.7.4}% 66
