\relax 
\providecommand\hyper@newdestlabel[2]{}
\providecommand\HyperFirstAtBeginDocument{\AtBeginDocument}
\HyperFirstAtBeginDocument{\ifx\hyper@anchor\@undefined
\global\let\oldcontentsline\contentsline
\gdef\contentsline#1#2#3#4{\oldcontentsline{#1}{#2}{#3}}
\global\let\oldnewlabel\newlabel
\gdef\newlabel#1#2{\newlabelxx{#1}#2}
\gdef\newlabelxx#1#2#3#4#5#6{\oldnewlabel{#1}{{#2}{#3}}}
\AtEndDocument{\ifx\hyper@anchor\@undefined
\let\contentsline\oldcontentsline
\let\newlabel\oldnewlabel
\fi}
\fi}
\global\let\hyper@last\relax 
\gdef\HyperFirstAtBeginDocument#1{#1}
\providecommand\HyField@AuxAddToFields[1]{}
\providecommand\HyField@AuxAddToCoFields[2]{}
\@writefile{toc}{\contentsline {section}{\numberline {1}prednaska 1}{1}{section.1}}
\newlabel{sec:org176744d}{{1}{1}{prednaska 1}{section.1}{}}
\@writefile{toc}{\contentsline {subsection}{\numberline {1.1}Zakladne pojmy teorie pravdepodobnosti}{1}{subsection.1.1}}
\newlabel{sec:org2cf74cd}{{1.1}{1}{Zakladne pojmy teorie pravdepodobnosti}{subsection.1.1}{}}
\@writefile{toc}{\contentsline {subsubsection}{\numberline {1.1.1}pojmy}{1}{subsubsection.1.1.1}}
\newlabel{sec:org60400be}{{1.1.1}{1}{pojmy}{subsubsection.1.1.1}{}}
\@writefile{toc}{\contentsline {subsubsection}{\numberline {1.1.2}klasicka definicia pravdepodobnosti}{1}{subsubsection.1.1.2}}
\newlabel{sec:orgfba80c3}{{1.1.2}{1}{klasicka definicia pravdepodobnosti}{subsubsection.1.1.2}{}}
\@writefile{toc}{\contentsline {subsubsection}{\numberline {1.1.3}statisticka definicia pravdepodobnosti}{1}{subsubsection.1.1.3}}
\newlabel{sec:org1e91e7e}{{1.1.3}{1}{statisticka definicia pravdepodobnosti}{subsubsection.1.1.3}{}}
\newlabel{sec:org6f0ffe8}{{1}{1}{statisticka definicia pravdepodobnosti}{Item.1}{}}
\@writefile{toc}{\contentsline {subsubsection}{\numberline {1.1.4}Axiomaticka def. pravdepodobnosti pre nespocitalne mziny}{2}{subsubsection.1.1.4}}
\newlabel{sec:orgc39cbbe}{{1.1.4}{2}{Axiomaticka def. pravdepodobnosti pre nespocitalne mziny}{subsubsection.1.1.4}{}}
\@writefile{toc}{\contentsline {subsubsection}{\numberline {1.1.5}Kolmogorova axiomaticka definicia pravdepodobnosti}{3}{subsubsection.1.1.5}}
\newlabel{sec:orgf08d793}{{1.1.5}{3}{Kolmogorova axiomaticka definicia pravdepodobnosti}{subsubsection.1.1.5}{}}
\@writefile{toc}{\contentsline {subsubsection}{\numberline {1.1.6}nahodna premenna}{4}{subsubsection.1.1.6}}
\newlabel{sec:org5b8e18e}{{1.1.6}{4}{nahodna premenna}{subsubsection.1.1.6}{}}
\newlabel{sec:orge4fa7dd}{{1}{4}{nahodna premenna}{Item.2}{}}
\newlabel{sec:orgdb8d69b}{{2}{5}{nahodna premenna}{Item.3}{}}
\newlabel{sec:orgf5c82a5}{{3}{6}{nahodna premenna}{Item.4}{}}
\newlabel{sec:orga3739d1}{{3a}{6}{nahodna premenna}{Item.5}{}}
\newlabel{sec:org74d2545}{{3b}{6}{nahodna premenna}{Item.6}{}}
\newlabel{sec:orgc2b145a}{{3c}{6}{nahodna premenna}{Item.7}{}}
\newlabel{sec:orgea5edb5}{{3d}{7}{nahodna premenna}{Item.8}{}}
\@writefile{toc}{\contentsline {section}{\numberline {2}prednaska 2}{7}{section.2}}
\newlabel{sec:org1809ea1}{{2}{7}{prednaska 2}{section.2}{}}
\@writefile{toc}{\contentsline {subsection}{\numberline {2.1}Spojite rozdelenia pravdepodobnosti}{7}{subsection.2.1}}
\newlabel{sec:org60ec84a}{{2.1}{7}{Spojite rozdelenia pravdepodobnosti}{subsection.2.1}{}}
\@writefile{toc}{\contentsline {subsubsection}{\numberline {2.1.1}vlastnosti funkcii pravdepodobnosti}{8}{subsubsection.2.1.1}}
\newlabel{sec:orgd5a3579}{{2.1.1}{8}{vlastnosti funkcii pravdepodobnosti}{subsubsection.2.1.1}{}}
\@writefile{toc}{\contentsline {subsubsection}{\numberline {2.1.2}Spojite rozdelenie}{8}{subsubsection.2.1.2}}
\newlabel{sec:orgba93150}{{2.1.2}{8}{Spojite rozdelenie}{subsubsection.2.1.2}{}}
\@writefile{toc}{\contentsline {subsubsection}{\numberline {2.1.3}Rovnomerne rozdelenie}{8}{subsubsection.2.1.3}}
\newlabel{sec:org4027bb7}{{2.1.3}{8}{Rovnomerne rozdelenie}{subsubsection.2.1.3}{}}
\@writefile{toc}{\contentsline {subsubsection}{\numberline {2.1.4}Normalne rozdelenie}{9}{subsubsection.2.1.4}}
\newlabel{sec:orgeaf0147}{{2.1.4}{9}{Normalne rozdelenie}{subsubsection.2.1.4}{}}
\newlabel{sec:org9058a40}{{1}{9}{Normalne rozdelenie}{Item.13}{}}
\@writefile{toc}{\contentsline {subsection}{\numberline {2.2}Jednorozmerny statisticky subor (prvotna graficka a vypoctova analyza)}{10}{subsection.2.2}}
\newlabel{sec:orgd34e2ed}{{2.2}{10}{Jednorozmerny statisticky subor (prvotna graficka a vypoctova analyza)}{subsection.2.2}{}}
\@writefile{toc}{\contentsline {subsubsection}{\numberline {2.2.1}Prvotna statisticka analyza, statisticke grafy}{10}{subsubsection.2.2.1}}
\newlabel{sec:org448d290}{{2.2.1}{10}{Prvotna statisticka analyza, statisticke grafy}{subsubsection.2.2.1}{}}
\newlabel{sec:org5f59db0}{{1}{10}{Prvotna statisticka analyza, statisticke grafy}{Item.14}{}}
\@writefile{toc}{\contentsline {subsubsection}{\numberline {2.2.2}Charakteristiky polohy}{11}{subsubsection.2.2.2}}
\newlabel{sec:org0580ef8}{{2.2.2}{11}{Charakteristiky polohy}{subsubsection.2.2.2}{}}
\newlabel{sec:org213e3a9}{{1}{11}{Charakteristiky polohy}{Item.15}{}}
\newlabel{sec:orgaf35aa2}{{2}{11}{Charakteristiky polohy}{Item.16}{}}
\@writefile{toc}{\contentsline {section}{\numberline {3}prednaska 3}{12}{section.3}}
\newlabel{sec:org275de04}{{3}{12}{prednaska 3}{section.3}{}}
\@writefile{toc}{\contentsline {subsection}{\numberline {3.1}Charakteristiky variability/rozptylu}{12}{subsection.3.1}}
\newlabel{sec:org2d8c0af}{{3.1}{12}{Charakteristiky variability/rozptylu}{subsection.3.1}{}}
\@writefile{toc}{\contentsline {subsection}{\numberline {3.2}Teoria odhadu}{12}{subsection.3.2}}
\newlabel{sec:org1f40a01}{{3.2}{12}{Teoria odhadu}{subsection.3.2}{}}
\@writefile{toc}{\contentsline {subsubsection}{\numberline {3.2.1}vlastnosti bodovych odhadov}{13}{subsubsection.3.2.1}}
\newlabel{sec:org5bf525b}{{3.2.1}{13}{vlastnosti bodovych odhadov}{subsubsection.3.2.1}{}}
\newlabel{sec:org5347f75}{{1}{13}{vlastnosti bodovych odhadov}{Item.17}{}}
\newlabel{sec:org56fbbbb}{{2}{13}{vlastnosti bodovych odhadov}{Item.18}{}}
\@writefile{toc}{\contentsline {subsubsection}{\numberline {3.2.2}Metody odhadu}{13}{subsubsection.3.2.2}}
\newlabel{sec:org00b140a}{{3.2.2}{13}{Metody odhadu}{subsubsection.3.2.2}{}}
\newlabel{sec:orgeea615c}{{1}{13}{Metody odhadu}{Item.19}{}}
\newlabel{sec:org09fc1ba}{{2}{13}{Metody odhadu}{Item.20}{}}
\@writefile{toc}{\contentsline {subsubsection}{\numberline {3.2.3}Intervalove odhady}{14}{subsubsection.3.2.3}}
\newlabel{sec:org1e738bc}{{3.2.3}{14}{Intervalove odhady}{subsubsection.3.2.3}{}}
\@writefile{toc}{\contentsline {subsubsection}{\numberline {3.2.4}Intervaly spolahlivosti pre parametre normalneho rozdelenia (IS, CI)}{15}{subsubsection.3.2.4}}
\newlabel{sec:org72bcced}{{3.2.4}{15}{Intervaly spolahlivosti pre parametre normalneho rozdelenia (IS, CI)}{subsubsection.3.2.4}{}}
\newlabel{sec:org7261706}{{1}{15}{Intervaly spolahlivosti pre parametre normalneho rozdelenia (IS, CI)}{Item.21}{}}
\newlabel{sec:org8ee310f}{{2}{16}{Intervaly spolahlivosti pre parametre normalneho rozdelenia (IS, CI)}{Item.22}{}}
\newlabel{sec:org0ccc6f7}{{3}{16}{Intervaly spolahlivosti pre parametre normalneho rozdelenia (IS, CI)}{Item.23}{}}
\@writefile{toc}{\contentsline {section}{\numberline {4}prednaska 4 - testy hypotez}{16}{section.4}}
\newlabel{sec:orgf970abf}{{4}{16}{prednaska 4 - testy hypotez}{section.4}{}}
\@writefile{toc}{\contentsline {subsection}{\numberline {4.1}testovanie statistikych hypotez}{16}{subsection.4.1}}
\newlabel{sec:org1e591d7}{{4.1}{16}{testovanie statistikych hypotez}{subsection.4.1}{}}
\@writefile{toc}{\contentsline {subsubsection}{\numberline {4.1.1}priklad testu}{17}{subsubsection.4.1.1}}
\newlabel{sec:org4a3cb90}{{4.1.1}{17}{priklad testu}{subsubsection.4.1.1}{}}
\@writefile{toc}{\contentsline {subsubsection}{\numberline {4.1.2}chyby}{17}{subsubsection.4.1.2}}
\newlabel{sec:org4249d20}{{4.1.2}{17}{chyby}{subsubsection.4.1.2}{}}
\@writefile{toc}{\contentsline {subsubsection}{\numberline {4.1.3}test hypotezy}{18}{subsubsection.4.1.3}}
\newlabel{sec:org45ad1b0}{{4.1.3}{18}{test hypotezy}{subsubsection.4.1.3}{}}
\@writefile{toc}{\contentsline {subsubsection}{\numberline {4.1.4}rozdelenie podla kriterii}{18}{subsubsection.4.1.4}}
\newlabel{sec:org2e2699f}{{4.1.4}{18}{rozdelenie podla kriterii}{subsubsection.4.1.4}{}}
\newlabel{sec:orgb1ed331}{{1}{18}{rozdelenie podla kriterii}{Item.24}{}}
\newlabel{sec:orge93568c}{{2}{18}{rozdelenie podla kriterii}{Item.25}{}}
\newlabel{sec:orgbcdd7ec}{{3}{19}{rozdelenie podla kriterii}{Item.26}{}}
\@writefile{toc}{\contentsline {subsection}{\numberline {4.2}testy hypotez pre par. normalneho rozdelenia}{19}{subsection.4.2}}
\newlabel{sec:org5952bfd}{{4.2}{19}{testy hypotez pre par. normalneho rozdelenia}{subsection.4.2}{}}
\@writefile{toc}{\contentsline {subsubsection}{\numberline {4.2.1}test pre strednu hodnotu ak disperziu pozname}{19}{subsubsection.4.2.1}}
\newlabel{sec:org85ab92a}{{4.2.1}{19}{test pre strednu hodnotu ak disperziu pozname}{subsubsection.4.2.1}{}}
\newlabel{sec:org33c48c7}{{1}{19}{test pre strednu hodnotu ak disperziu pozname}{Item.27}{}}
\@writefile{toc}{\contentsline {subsubsection}{\numberline {4.2.2}test pre strednu hodnotu ak disperzia nie je znama}{20}{subsubsection.4.2.2}}
\newlabel{sec:org7de662d}{{4.2.2}{20}{test pre strednu hodnotu ak disperzia nie je znama}{subsubsection.4.2.2}{}}
\@writefile{toc}{\contentsline {subsubsection}{\numberline {4.2.3}test pre disperziu normalneho rozdelenia}{20}{subsubsection.4.2.3}}
\newlabel{sec:org8f354df}{{4.2.3}{20}{test pre disperziu normalneho rozdelenia}{subsubsection.4.2.3}{}}
\newlabel{sec:org081bcd7}{{1}{20}{test pre disperziu normalneho rozdelenia}{Item.28}{}}
\@writefile{toc}{\contentsline {subsubsection}{\numberline {4.2.4}parovy dvojvyberovy test}{21}{subsubsection.4.2.4}}
\newlabel{sec:orgf84b193}{{4.2.4}{21}{parovy dvojvyberovy test}{subsubsection.4.2.4}{}}
\@writefile{toc}{\contentsline {section}{\numberline {5}prednaska 5 - dvojvyberove testy}{21}{section.5}}
\newlabel{sec:org03c59ec}{{5}{21}{prednaska 5 - dvojvyberove testy}{section.5}{}}
\@writefile{toc}{\contentsline {subsection}{\numberline {5.1}parovy test}{21}{subsection.5.1}}
\newlabel{sec:orgd20fbda}{{5.1}{21}{parovy test}{subsection.5.1}{}}
\@writefile{toc}{\contentsline {subsubsection}{\numberline {5.1.1}priklad}{22}{subsubsection.5.1.1}}
\newlabel{sec:org9e38d18}{{5.1.1}{22}{priklad}{subsubsection.5.1.1}{}}
\@writefile{toc}{\contentsline {subsection}{\numberline {5.2}neparovy test}{22}{subsection.5.2}}
\newlabel{sec:org0426ed0}{{5.2}{22}{neparovy test}{subsection.5.2}{}}
\@writefile{toc}{\contentsline {subsubsection}{\numberline {5.2.1}disperzie sa rovnaju}{22}{subsubsection.5.2.1}}
\newlabel{sec:org5894f85}{{5.2.1}{22}{disperzie sa rovnaju}{subsubsection.5.2.1}{}}
\newlabel{sec:org88c2f20}{{1}{22}{disperzie sa rovnaju}{Item.29}{}}
\newlabel{sec:org361a9c2}{{2}{22}{disperzie sa rovnaju}{Item.30}{}}
\@writefile{toc}{\contentsline {subsubsection}{\numberline {5.2.2}disperzie sa nerovnaju}{23}{subsubsection.5.2.2}}
\newlabel{sec:org045e5b7}{{5.2.2}{23}{disperzie sa nerovnaju}{subsubsection.5.2.2}{}}
\@writefile{toc}{\contentsline {subsubsection}{\numberline {5.2.3}test rovnosti disperzii}{23}{subsubsection.5.2.3}}
\newlabel{sec:org8c53640}{{5.2.3}{23}{test rovnosti disperzii}{subsubsection.5.2.3}{}}
\@writefile{toc}{\contentsline {subsection}{\numberline {5.3}dvojrozmerny statisticky subor}{23}{subsection.5.3}}
\newlabel{sec:org8ff283c}{{5.3}{23}{dvojrozmerny statisticky subor}{subsection.5.3}{}}
\@writefile{toc}{\contentsline {subsubsection}{\numberline {5.3.1}priklad}{23}{subsubsection.5.3.1}}
\newlabel{sec:org3f4252a}{{5.3.1}{23}{priklad}{subsubsection.5.3.1}{}}
\@writefile{toc}{\contentsline {subsubsection}{\numberline {5.3.2}dalsie veliciny}{24}{subsubsection.5.3.2}}
\newlabel{sec:orgbb47575}{{5.3.2}{24}{dalsie veliciny}{subsubsection.5.3.2}{}}
\newlabel{sec:orgb59b8c7}{{1}{24}{dalsie veliciny}{Item.31}{}}
\newlabel{sec:org264e54f}{{5.3.2}{25}{dalsie veliciny}{Item.35}{}}
\newlabel{sec:orgbf74188}{{1}{25}{dalsie veliciny}{Item.36}{}}
\@writefile{toc}{\contentsline {subsubsection}{\numberline {5.3.3}test nulovosti korelacneho koeficientu}{26}{subsubsection.5.3.3}}
\newlabel{sec:org818621f}{{5.3.3}{26}{test nulovosti korelacneho koeficientu}{subsubsection.5.3.3}{}}
\@writefile{toc}{\contentsline {section}{\numberline {6}prednaska 6 - linearna regresia, linearny model, regresna analyza}{26}{section.6}}
\newlabel{sec:org4594b2b}{{6}{26}{prednaska 6 - linearna regresia, linearny model, regresna analyza}{section.6}{}}
\@writefile{toc}{\contentsline {subsection}{\numberline {6.1}regresna analyza}{26}{subsection.6.1}}
\newlabel{sec:orgec648d3}{{6.1}{26}{regresna analyza}{subsection.6.1}{}}
\@writefile{toc}{\contentsline {subsubsection}{\numberline {6.1.1}MSE pre priamku}{27}{subsubsection.6.1.1}}
\newlabel{sec:org58dc72c}{{6.1.1}{27}{MSE pre priamku}{subsubsection.6.1.1}{}}
\newlabel{sec:orgf2dc454}{{1}{27}{MSE pre priamku}{Item.37}{}}
\@writefile{toc}{\contentsline {subsection}{\numberline {6.2}charakteristiky regresnej analyzy}{28}{subsection.6.2}}
\newlabel{sec:org389af0e}{{6.2}{28}{charakteristiky regresnej analyzy}{subsection.6.2}{}}
\@writefile{toc}{\contentsline {subsubsection}{\numberline {6.2.1}rezidualny sucet stvorcov}{28}{subsubsection.6.2.1}}
\newlabel{sec:orgfa6e910}{{6.2.1}{28}{rezidualny sucet stvorcov}{subsubsection.6.2.1}{}}
\@writefile{toc}{\contentsline {subsubsection}{\numberline {6.2.2}vyberova kovariancna matica}{28}{subsubsection.6.2.2}}
\newlabel{sec:org852032f}{{6.2.2}{28}{vyberova kovariancna matica}{subsubsection.6.2.2}{}}
\newlabel{sec:orge284347}{{1}{28}{vyberova kovariancna matica}{Item.38}{}}
\@writefile{toc}{\contentsline {subsubsection}{\numberline {6.2.3}pasy spolahlivosti}{29}{subsubsection.6.2.3}}
\newlabel{sec:org610e3d7}{{6.2.3}{29}{pasy spolahlivosti}{subsubsection.6.2.3}{}}
\@writefile{toc}{\contentsline {subsection}{\numberline {6.3}overovanie vhodnosti regresneho modelu}{29}{subsection.6.3}}
\newlabel{sec:org0894f52}{{6.3}{29}{overovanie vhodnosti regresneho modelu}{subsection.6.3}{}}
\@writefile{toc}{\contentsline {subsection}{\numberline {6.4}transformacie na linearnu regresiu}{29}{subsection.6.4}}
\newlabel{sec:orgaa0152f}{{6.4}{29}{transformacie na linearnu regresiu}{subsection.6.4}{}}
\@writefile{toc}{\contentsline {subsubsection}{\numberline {6.4.1}exponencialne funkcie}{30}{subsubsection.6.4.1}}
\newlabel{sec:org5cbc3a1}{{6.4.1}{30}{exponencialne funkcie}{subsubsection.6.4.1}{}}
\@writefile{toc}{\contentsline {subsubsection}{\numberline {6.4.2}\(y=ax^b\)}{30}{subsubsection.6.4.2}}
\newlabel{sec:org89d0144}{{6.4.2}{30}{\(y=ax^b\)}{subsubsection.6.4.2}{}}
\@writefile{toc}{\contentsline {subsubsection}{\numberline {6.4.3}\(y=ab^x\)}{30}{subsubsection.6.4.3}}
\newlabel{sec:orgba8b0aa}{{6.4.3}{30}{\(y=ab^x\)}{subsubsection.6.4.3}{}}
\@writefile{toc}{\contentsline {subsubsection}{\numberline {6.4.4}\(y=a+\frac  {b}{x}\)}{30}{subsubsection.6.4.4}}
\newlabel{sec:org3b6b6db}{{6.4.4}{30}{\(y=a+\frac {b}{x}\)}{subsubsection.6.4.4}{}}
\@writefile{toc}{\contentsline {section}{\numberline {7}prednaska 7 - regresna analyza a logisticka regresia}{30}{section.7}}
\newlabel{sec:org9d3c542}{{7}{30}{prednaska 7 - regresna analyza a logisticka regresia}{section.7}{}}
\@writefile{toc}{\contentsline {subsection}{\numberline {7.1}chyby modelu}{30}{subsection.7.1}}
\newlabel{sec:orgb62017b}{{7.1}{30}{chyby modelu}{subsection.7.1}{}}
\@writefile{toc}{\contentsline {subsection}{\numberline {7.2}regresia s 2 nezavislymi premennymi}{31}{subsection.7.2}}
\newlabel{sec:orgb216aef}{{7.2}{31}{regresia s 2 nezavislymi premennymi}{subsection.7.2}{}}
\@writefile{toc}{\contentsline {subsubsection}{\numberline {7.2.1}priklad}{31}{subsubsection.7.2.1}}
\newlabel{sec:org7e9ad29}{{7.2.1}{31}{priklad}{subsubsection.7.2.1}{}}
\@writefile{toc}{\contentsline {subsection}{\numberline {7.3}zovseobecnene linearne modely}{31}{subsection.7.3}}
\newlabel{sec:org3e97dc2}{{7.3}{31}{zovseobecnene linearne modely}{subsection.7.3}{}}
\@writefile{toc}{\contentsline {subsection}{\numberline {7.4}logisticka regresia}{31}{subsection.7.4}}
\newlabel{sec:orgb3d8094}{{7.4}{31}{logisticka regresia}{subsection.7.4}{}}
\@writefile{toc}{\contentsline {subsubsection}{\numberline {7.4.1}model, transformacia logit}{32}{subsubsection.7.4.1}}
\newlabel{sec:org2cd2eb1}{{7.4.1}{32}{model, transformacia logit}{subsubsection.7.4.1}{}}
\newlabel{sec:orgc1a735c}{{1}{32}{model, transformacia logit}{Item.39}{}}
\newlabel{sec:org5bc72c6}{{2}{32}{model, transformacia logit}{Item.40}{}}
