"","SNUM","CLASS","BM_PB","TB_if_ALL","FAB_if_AML","Year","Gender","pct_Blasts","Treatment_Response","PS","Source","D49950","D63880","J03473","J05243","L13278","L47738","M21551_rna1","M55150","M62762","M81933","M91432","S50223","U12471_cds1","U32944","U35451","U50136_rna1","U53468","U72342","U82759","X15949","X52142","X56411_rna1","X63469","X74262","X76061","X76648","X95735","Y08612","Y12670","D38073","AF012024_s","D26156_s","M84371_rna1_s","M31211_s","U09087_s","U26266_s","L49229_f","M31523","M28170","U29175"
"3","s3","ALL","BM","T-cell","?","?","M","?","?",0.87,"DFCI",44,498,573,1697,198,2723,345,1286,609,124,1547,804,167,2089,912,1398,98,855,667,91,20,166,230,2221,250,1240,309,214,574,1441,139,1452,905,547,263,447,529,597,183,753
"4","s4","ALL","BM","B-cell","?","?","?","?","?",0.91,"DFCI",218,1211,2291,425,91,731,374,915,935,167,831,452,104,1625,304,942,20,369,410,403,190,131,314,1051,139,992,693,432,716,680,168,654,2038,472,218,424,422,1644,363,743
"5","s5","ALL","BM","B-cell","?","?","?","?","?",0.89,"DFCI",110,820,2796,529,194,649,321,732,1665,114,1423,476,145,3502,398,928,238,653,119,416,361,141,632,1370,270,1233,713,596,524,950,94,1011,1871,661,186,364,354,1322,251,626
"6","s6","ALL","BM","T-cell","?","?","M","?","?",0.76,"DFCI",33,485,405,1682,96,1858,44,691,499,56,430,256,81,316,506,842,32,449,147,46,26,151,181,1306,67,401,247,220,270,1258,197,1584,634,337,209,320,327,787,74,1157
"7","s7","ALL","BM","B-cell","?","1983","F","?","?",0.78,"DFCI",115,734,1829,386,178,280,359,853,764,203,764,208,122,1530,357,1066,20,638,735,267,191,245,213,1339,193,821,52,196,463,509,188,578,2364,309,144,381,354,946,280,552
"8","s8","ALL","BM","B-cell","?","?","F","?","?",0.77,"DFCI",32,223,2497,629,112,1716,364,1238,1323,20,752,310,335,1042,134,1668,71,361,248,314,179,77,227,655,167,1012,20,436,689,331,61,1024,1409,263,167,53,232,1917,235,572
"9","s9","ALL","BM","T-cell","?","?","M","?","?",0.89,"DFCI",20,686,1204,2760,198,2388,333,822,1741,124,1777,640,131,2286,982,966,90,576,258,210,240,205,362,3593,152,929,20,513,262,1974,269,1297,644,978,385,869,568,1440,24,1776
"10","s10","ALL","BM","T-cell","?","1987","M","?","?",0.56,"DFCI",54,721,324,1722,20,913,271,885,1188,89,426,152,264,934,613,1175,62,99,409,97,96,119,47,1058,20,330,492,114,167,664,99,971,358,752,146,403,20,442,20,756
"11","s11","ALL","BM","T-cell","?","1985","M","?","?",0.74,"DFCI",38,551,264,1587,36,2147,267,680,1870,46,472,441,195,282,745,626,54,686,306,27,69,107,225,953,71,512,20,492,174,884,132,1913,500,897,89,526,20,617,20,1972
"12","s12","ALL","BM","B-cell","?","1985","F","?","?",0.2,"DFCI",20,198,472,169,20,140,20,412,1030,44,76,90,104,277,20,747,63,20,20,20,20,20,43,209,38,90,408,119,258,314,54,329,1119,334,37,60,20,474,84,219
"14","s14","ALL","BM","T-cell","?","1987","M","?","?",0.73,"DFCI",72,694,999,859,188,1483,20,1157,892,77,606,570,135,1613,404,864,20,901,188,307,159,206,442,2050,449,679,360,416,180,1062,199,1011,408,265,179,308,290,686,155,732
"15","s15","ALL","BM","B-cell","?","1989","F","?","?",0.98,"DFCI",158,1287,2352,661,217,1505,64,387,1306,96,1417,571,128,2952,547,515,62,905,99,747,499,56,522,1995,335,1426,938,651,625,1030,147,1763,2239,898,314,929,513,2572,371,1636
"18","s18","ALL","BM","B-cell","?","?","F","?","?",0.59,"DFCI",99,1281,2150,252,32,669,333,738,542,89,954,20,157,820,726,883,20,171,102,515,20,255,472,882,121,541,390,198,314,762,20,764,1046,516,119,358,20,1186,195,453
"19","s19","ALL","BM","B-cell","?","?","?","?","?",0.8,"DFCI",101,256,1338,1041,200,1137,279,907,809,82,532,84,290,1116,95,1309,191,493,432,339,184,82,156,1459,211,1225,615,251,146,800,65,1448,3210,473,91,310,45,1224,285,1660
"20","s20","ALL","BM","B-cell","?","?","?","?","?",0.9,"DFCI",22,568,4443,1717,338,3810,117,860,2475,120,3192,867,70,5908,767,817,167,1224,359,748,326,308,629,4253,166,3081,827,847,636,1158,128,2191,4072,1487,268,1047,312,4555,470,2174
"22","s22","ALL","BM","B-cell","?","1988","M","?","?",0.37,"DFCI",74,43,1191,304,20,857,265,686,1977,111,70,241,126,108,247,825,82,128,160,48,20,39,104,176,20,532,122,290,180,141,20,1323,1878,143,30,20,184,274,95,295
"25","s25","ALL","BM","B-cell","?","1982","M","?","?",0.43,"DFCI",20,231,569,295,20,223,305,842,933,113,363,301,144,1081,116,1171,58,20,267,163,20,95,162,489,35,416,700,292,402,521,153,738,2537,481,81,166,77,553,391,404
"26","s26","ALL","BM","B-cell","?","?","F","?","?",0.89,"DFCI",117,306,2088,1122,20,759,330,514,1114,52,636,101,98,1480,96,805,55,295,59,169,105,297,348,716,97,1134,433,424,190,700,121,2143,3495,647,109,190,20,1909,495,1982
"27","s27","ALL","BM","B-cell","?","?","F","?","?",0.82,"DFCI",20,433,1702,209,79,899,64,561,20,20,419,20,143,1283,291,1286,143,220,20,104,109,291,217,500,92,477,20,517,273,456,90,1245,1768,145,139,201,170,1076,219,949
"29","s29","AML","BM","?","M2","?","?","34","Failure",0.74,"CALGB",190,277,500,237,20,65,259,1647,1736,243,125,150,217,179,29,2545,31,173,1137,35,20,20,178,309,20,514,3348,151,1296,294,50,624,225,237,58,66,20,279,35,314
"30","s30","AML","BM","?","M5","?","?","93","Failure",0.8,"CALGB",326,136,426,238,20,172,487,2112,3553,229,158,20,213,651,160,3818,21,118,1050,20,20,84,20,313,29,147,6218,173,647,148,20,388,251,100,20,20,60,250,20,208
"31","s31","AML","BM","?","M4","?","?","77","Failure",0.61,"CALGB",197,321,871,57,60,239,554,1555,3255,132,295,31,283,469,223,2943,52,20,1157,23,20,20,115,275,20,159,1548,119,1085,309,45,432,595,192,61,20,56,381,20,385
"32","s32","AML","BM","?","M1","?","?","86","Failure",0.47,"CALGB",259,283,671,628,34,683,462,1514,4249,230,368,210,264,328,293,2535,24,249,1083,59,20,127,136,311,165,165,3297,185,1467,259,68,706,863,339,50,192,88,671,20,688
"33","s33","AML","BM","?","M2","?","?","70","Failure",0.89,"CALGB",100,151,109,20,20,153,672,2693,1871,282,110,20,304,133,73,1373,29,380,1099,33,20,47,63,20,20,307,3482,172,1513,256,20,736,678,59,20,20,20,200,20,248
"34","s34","AML","BM","?","M2","?","?","77","Success",0.64,"CALGB",355,226,803,206,20,20,405,1811,3236,179,263,56,293,427,208,2402,20,20,652,35,20,121,181,279,34,110,2947,200,1807,238,28,302,469,153,34,282,20,299,20,454
"35","s35","AML","BM","?","M1","?","?","67","Success",0.21,"CALGB",295,20,430,20,20,218,327,1406,1125,214,226,168,322,288,57,2137,20,117,262,79,20,33,74,336,40,209,1050,86,1038,382,50,201,548,20,48,43,38,389,67,391
"36","s36","AML","BM","?","M5","?","?","76","Success",0.94,"CALGB",283,410,603,20,22,20,485,1707,4647,179,87,20,337,295,214,3965,20,259,618,71,20,20,202,194,58,358,4863,209,1051,245,29,667,763,88,74,64,20,126,20,412
"37","s37","AML","BM","?","M2","?","?","44","Success",0.95,"CALGB",311,185,404,87,20,20,415,2072,3808,330,183,20,417,224,149,2539,20,20,805,20,20,81,20,130,20,254,2612,253,1064,267,98,697,466,139,52,20,93,190,20,393
"38","s38","AML","BM","?","M1","?","?","80","Success",0.73,"CALGB",70,118,355,71,20,201,582,1753,3594,407,111,62,271,230,195,2286,36,20,673,64,20,94,20,51,20,550,1671,199,2538,342,41,721,838,75,33,20,20,275,20,286
"40","s40","ALL","BM","B-cell","?","1980","F","?","?",0.68,"DFCI",234,20,872,994,216,180,363,503,708,27,382,373,411,759,269,1016,29,749,68,275,81,20,225,490,199,860,105,338,639,472,20,879,2758,251,20,136,178,606,437,1323
"41","s41","ALL","BM","B-cell","?","?","F","?","?",0.99,"DFCI",20,867,2158,615,118,770,20,181,1188,173,707,167,154,1657,417,428,122,479,198,198,331,100,184,1258,133,668,252,428,203,929,173,1147,1681,616,114,457,64,1479,84,1033
"42","s42","ALL","BM","B-cell","?","?","F","?","?",0.42,"DFCI",35,376,844,233,100,273,199,1565,2274,371,553,127,649,727,136,64,110,217,472,113,20,116,157,678,98,539,92,471,450,543,109,1140,721,362,135,138,123,1751,20,826
"43","s43","ALL","BM","B-cell","?","?","F","?","?",0.66,"DFCI",43,586,942,853,84,439,69,1165,951,355,562,274,20,1802,108,646,20,341,242,233,122,74,115,699,225,629,20,252,389,737,134,605,2047,329,26,20,48,2148,420,937
"45","s45","ALL","BM","B-cell","?","1998","M","?","?",0.88,"DFCI",142,462,1588,382,86,444,165,309,1062,445,747,236,278,1407,27,470,132,78,46,205,218,131,228,555,60,679,20,264,466,889,65,795,1995,467,32,348,72,1275,32,479
"47","s47","ALL","BM","B-cell","?","1986","M","?","?",0.81,"DFCI",191,741,926,510,176,575,235,767,1828,224,638,239,75,2582,42,1141,155,590,176,264,113,113,380,1903,56,546,399,157,342,853,69,466,779,493,100,632,109,1052,20,613
"48","s48","ALL","BM","B-cell","?","1992","F","?","?",0.94,"DFCI",51,579,1924,598,461,603,302,927,1946,143,1340,776,194,3482,48,769,106,1892,353,778,213,188,449,2123,437,1627,805,648,535,1587,204,1355,2338,951,192,703,20,2428,275,1475
"50","s50","AML","BM","?","M4","?","?","93","Failure",0.97,"CALGB",346,164,675,135,38,578,342,1895,3427,274,225,48,175,185,82,2442,20,20,1375,202,41,20,20,148,20,176,5814,166,729,212,20,802,676,70,45,20,48,197,110,190
"51","s51","AML","BM","?","M2","?","?","57","Failure",1,"CALGB",211,209,506,48,20,446,339,1339,2120,20,126,20,434,249,160,2335,20,34,677,20,201,30,20,148,30,168,2335,112,683,108,90,667,502,64,50,20,52,110,44,382
"52","s52","AML","PB","?","M4","?","?","86","Success",0.61,"CALGB",109,131,488,294,20,455,354,801,3266,62,163,20,198,882,70,541,20,222,218,27,20,20,65,401,35,495,2007,109,442,232,36,20,291,248,20,376,25,139,20,250
"53","s53","AML","BM","?","M2","?","?","76","Success",0.89,"CALGB",106,94,449,109,20,118,308,1534,3457,206,135,45,334,177,76,3568,79,439,300,20,20,161,112,162,125,108,3870,284,4460,288,31,1024,530,158,20,119,39,388,20,367
"54","s54","AML","BM","?","M4","?","F","?","?",0.23,"St-Jude",204,335,1061,352,76,269,319,1811,2860,216,413,26,238,2110,333,1083,20,494,280,194,430,60,258,784,20,310,4403,157,458,740,169,640,517,575,185,56,213,282,20,578
"55","s55","ALL","BM","B-cell","?","?","F","?","?",0.73,"St-Jude",74,449,1490,421,20,287,194,781,1170,224,339,20,107,1145,289,861,20,282,20,82,327,54,269,723,24,431,878,177,244,506,102,911,3739,439,20,644,54,821,184,751
"56","s56","ALL","BM","B-cell","?","?","F","?","?",0.84,"St-Jude",20,494,1593,1359,33,1009,46,669,1246,296,496,56,239,1148,136,973,20,224,20,206,203,139,221,834,54,502,162,337,244,746,136,1521,2721,190,131,432,33,1297,620,1127
"57","s57","AML","BM","?","M2","?","F","?","?",0.22,"St-Jude",96,326,569,21,20,21,253,1147,1662,20,196,20,192,807,186,721,20,86,110,184,20,147,64,330,31,222,2287,165,318,654,66,534,463,21,20,131,20,196,20,398
"58","s58","AML","BM","?","M2","?","?","?","?",0.74,"St-Jude",151,238,658,151,64,37,646,1656,1489,20,129,20,71,534,71,2392,20,20,340,182,20,284,86,105,20,287,2871,173,333,327,188,534,126,173,20,114,20,268,20,151
"59","s59","ALL","BM","B-cell","?","?","F","?","?",0.68,"St-Jude",205,691,724,739,144,310,20,261,1769,195,155,106,66,734,94,571,20,167,20,216,55,236,30,818,127,754,373,132,101,963,20,950,2213,592,33,338,40,1087,231,846
"60","s60","AML","BM","?","M2","?","M","?","?",0.06,"St-Jude",183,428,575,336,20,471,20,880,1933,275,412,20,176,1235,290,723,20,307,139,228,109,296,104,919,168,769,2122,57,391,325,20,371,655,137,82,201,93,461,20,486
"61","s61","AML","BM","?","M1","?","?","?","?",0.4,"St-Jude",175,95,795,288,20,218,361,1263,2600,71,422,20,132,773,95,1023,58,20,407,112,101,179,58,301,82,23,3186,307,485,225,54,1092,429,201,58,99,60,446,20,485
"63","s63","AML","PB","?","?","?","F","?","?",0.69,"CCG",250,318,776,20,87,233,93,1476,4514,20,462,20,256,1425,312,2502,64,304,359,313,20,117,544,810,139,1018,5949,233,656,646,140,832,996,74,76,63,20,253,20,745
"64","s64","AML","PB","?","?","?","M","?","?",0.52,"CCG",455,325,534,195,113,309,534,3220,2803,20,273,20,143,393,384,3190,21,1076,1116,260,20,257,130,544,485,249,4174,216,1152,609,70,818,1157,51,119,162,20,450,113,878
"65","s65","AML","BM","?","?","?","M","?","?",0.6,"CCG",218,156,409,220,20,20,308,610,2631,20,179,20,280,501,20,2349,117,20,386,152,26,20,105,215,20,43,2194,185,323,423,70,440,383,198,20,367,20,375,20,588
"66","s66","AML","BM","?","?","?","M","?","?",0.27,"CCG",65,349,828,230,67,408,254,749,960,165,362,20,163,993,115,775,20,106,217,67,20,20,217,1082,108,228,543,115,410,825,65,625,512,226,49,378,20,528,20,669
"67","s67","ALL","PB","T-cell","?","1997","M","?","?",0.15,"DFCI",53,72,540,519,20,908,222,654,2601,70,140,31,134,59,243,993,175,331,96,58,20,156,208,581,20,79,2451,223,501,156,73,1295,658,200,20,234,69,929,20,1661
"68","s68","ALL","PB","B-cell","?","1998","M","?","?",0.8,"DFCI",145,734,3090,1226,179,1235,140,859,1618,20,1385,439,216,3869,523,1049,335,1083,386,469,352,107,400,1700,312,1690,1931,517,648,688,202,1131,643,580,255,755,443,3923,67,1088
"69","s69","ALL","PB","B-cell","?","1998","M","?","?",0.85,"DFCI",84,545,2412,765,91,1284,351,623,1760,182,1012,607,120,1569,146,1496,271,659,349,379,161,152,599,808,457,1211,395,596,391,706,227,1187,2362,573,208,476,258,1794,155,1187
"70","s70","ALL","PB","B-cell","?","1998","F","?","?",0.73,"DFCI",20,440,1146,344,117,853,30,360,1025,301,334,106,185,1072,252,682,27,85,51,75,86,69,213,490,37,533,43,349,86,519,77,693,1955,348,43,100,89,1277,266,1002
"71","s71","ALL","PB","B-cell","?","1998","?","?","?",0.3,"DFCI",105,113,704,1164,25,1213,263,310,1494,170,146,20,134,227,239,931,78,168,20,75,31,232,232,149,396,471,509,353,396,144,81,1313,1399,218,110,388,81,828,142,1504
"72","s72","ALL","PB","B-cell","?","1998","?","?","?",0.77,"DFCI",146,78,1231,894,20,586,339,665,2122,174,235,163,115,325,358,1029,97,510,157,20,62,234,262,583,113,986,417,502,754,347,38,2352,1667,493,53,82,22,1361,119,1926
